38.914949
38.985012
39.055086
38.824963
38.935007
39.004945
38.88496
38.955056
39.025014
38.914983
38.98515
39.05526
38.835035
38.935143
39.00496
38.955074
39.02507
38.884991
38.9151
38.99483
39.064854
38.83518
38.944823
39.00502
38.884998
38.964879
39.025077
38.924819
38.994919
39.064863
38.854844
38.944903
39.005026
38.885008
38.964927
39.025102
38.924902
38.994969
39.064919
38.854981
38.944933
39.005041
38.895016
38.96496
39.034878
38.924996
38.994994
39.064946
38.864932
38.944945
39.005075
38.895038
38.965127
39.034893
38.925013
38.995052
39.065078
38.8651
38.944953
39.014888
38.895226
38.974839
39.034931
38.804932
38.92504
39.004836
39.075008
38.875007
38.944958
39.015039
38.904871
38.974898
39.035101
38.805017
38.92504
39.004926
39.085007
38.884832
38.94508
39.015112
38.904874
38.984961
39.045113
38.805101
38.92507
39.004926
39.105169
38.884915
38.945183
39.024934
38.905079
38.984976
39.055024
38.824928
38.934942
39.004935
38.884949
38.954924
39.024993
