38.825075
38.92519
39.004989
39.094937
38.874919
38.965007
39.015096
38.904962
38.985009
39.04512
38.83496
38.934829
39.005001
39.095105
38.875041
38.96504
39.024707
38.905
38.994991
39.054971
38.844929
38.944844
39.005011
38.965066
39.024968
38.884965
38.914959
38.994995
39.054976
38.84495
38.94491
39.005014
38.885029
38.965066
39.025005
38.915051
38.995001
39.055007
38.844977
38.94494
39.005086
38.894745
38.96511
39.025092
38.915195
38.995046
39.055063
38.845078
38.954977
39.005093
38.894902
38.974787
39.034944
38.92482
38.995064
39.055107
38.855066
38.955061
39.005127
38.894934
38.974931
39.034987
38.924916
38.995086
39.065212
38.864945
38.955182
39.005133
38.894935
38.974964
39.035052
38.924987
38.995108
39.074906
38.864991
38.955221
39.014819
38.895011
38.98485
39.03507
38.925023
39.004939
39.074962
38.865056
38.964916
39.015053
38.895042
38.984867
39.03507
38.825068
38.925064
39.004969
39.085125
38.865372
38.964993
39.015066
38.895163
38.984928
39.045102
