30
84
35
59
25
48
66
59
55
54
51
65
16
79
38
22
70
30
97
78
70
33
65
63
78
12
46
23
61
75
41
56
32
55
52
74
41
58
22
52
25
81
99
38
51
71
89
45
63
56
36
88
54
44
27
53
60
72
54
59
50
59
86
52
38
63
65
71
36
66
67
49
88
48
62
40
69
65
67
50
48
38
43
43
33
55
62
74
20
55
68
63
55
49
71
28
60
61
29
