37
31
38
51
64
31
57
52
36
47
55
37
60
32
50
38
66
30
48
63
49
60
41
57
76
50
63
50
45
62
92
49
38
58
53
17
80
98
87
22
65
50
16
21
45
62
59
35
58
66
67
60
54
54
90
46
74
42
83
41
75
81
60
61
80
73
61
59
48
75
58
35
43
50
34
39
77
45
74
48
46
32
53
70
65
23
63
81
75
55
57
28
47
44
81
42
26
69
48
